…
    ## 
    ## i Use `spec()` to retrieve the full column specification for this data.
    ## i Specify the column types or set `show_col_types = FALSE` to quiet this message.

Part 2(a) produce table for Baby’s name Oliva

``` r
filter(pb_names, childs_first_name == "olivia") %>%
  pivot_wider(names_from = year_of_birth, values_from = childs_first_name)
```

    ## # A tibble: 24 x 10
    ##    gender ethnicity        count  rank `2016` `2015` `2014` `2013` `2012` `2011`
    ##    <chr>  <chr>            <dbl> <dbl> <chr>  <chr>  <chr>  <chr>  <chr>  <chr> 
    ##  1 FEMALE ASIAN AND PACIF~   172     1 olivia <NA>   <NA>   <NA>   <NA>   <NA>  
    ##  2 FEMALE BLACK NON HISPA~    49     8 olivia <NA>   <NA>   <NA>   <NA>   <NA>  
    ##  3 FEMALE HISPANIC           108    13 olivia <NA>   <NA>   <NA>   <NA>   <NA>  
    ##  4 FEMALE WHITE NON HISPA~   230     1 olivia <NA>   <NA>   <NA>   <NA>   <NA>  
    ##  5 FEMALE ASIAN AND PACIF~   188     1 <NA>   olivia <NA>   <NA>   <NA>   <NA>  
    ##  6 FEMALE BLACK NON HISPA~    82     4 <NA>   olivia <NA>   <NA>   <NA>   <NA>  
    ##  7 FEMALE HISPANIC            94    16 <NA>   olivia <NA>   <NA>   <NA>   <NA>  
    ##  8 FEMALE WHITE NON HISPA~   225     1 <NA>   olivia <NA>   <NA>   <NA>   <NA>  
    ##  9 FEMALE ASIAN AND PACIF~   141     1 <NA>   <NA>   olivia <NA>   <NA>   <NA>  
    ## 10 FEMALE BLACK NON HISPA~    52     8 <NA>   <NA>   olivia <NA>   <NA>   <NA>  
    ## # ... with 14 more rows

Part 2(b) produce table for male children

``` r
filter(pb_names, gender == "MALE") %>% 
  pivot_wider(names_from = year_of_birth, values_from = count) 
```

    ## # A tibble: 5,301 x 10
    ##    gender ethnicity    childs_first_na~  rank `2016` `2015` `2014` `2013` `2012`
    ##    <chr>  <chr>        <chr>            <dbl>  <dbl>  <dbl>  <dbl>  <dbl>  <dbl>
    ##  1 MALE   ASIAN AND P~ ethan                1    193     NA     NA     NA     NA
    ##  2 MALE   ASIAN AND P~ ryan                 2    160     NA     NA     NA     NA
    ##  3 MALE   ASIAN AND P~ muhammad             3    157     NA     NA     NA     NA
    ##  4 MALE   ASIAN AND P~ lucas                4    148     NA    139    148     NA
    ##  5 MALE   ASIAN AND P~ jayden               5    138     NA     NA     NA     NA
    ##  6 MALE   ASIAN AND P~ aiden                6    133     NA     NA     NA    118
    ##  7 MALE   ASIAN AND P~ daniel               7     81     NA     87    108     NA
    ##  8 MALE   ASIAN AND P~ evan                 8     77     71     NA     NA     NA
    ##  9 MALE   ASIAN AND P~ jason                9     76     NA     NA     81     NA
    ## 10 MALE   ASIAN AND P~ liam                 9     76     70     NA     NA     NA
    ## # ... with 5,291 more rows, and 1 more variable: 2011 <dbl>
…
